tidyr 0.7.0 - markusdumke
…
prefix only exist in the local context but the quosure can safely refer to it

quo
#> <quosure: local>
#> ~starts_with(prefix)

In tidyr 0.7.0, all functions now support quosures:

gather(iris, key, value, !! quo)
#> # A tibble: 300 x 5
#>    Petal.Length Petal.Width Species          key value
#>           <dbl>       <dbl>  <fctr>        <chr> <dbl>
#>  1          1.4         0.2  setosa Sepal.Length   5.1
#>  2          1.4         0.2  setosa Sepal.Length   4.9
#>  3          1.3         0.2  setosa Sepal.Length   4.7
#>  4          1.5         0.2  setosa Sepal.Length   4.6
#>  5          1.4         0.2  setosa Sepal.Length   5.0
#>  6          1.7         0.4  setosa Sepal.Length   5.4
#>  7          1.4         0.3  setosa Sepal.Length   4.6
#>  8          1.5         0.2  setosa Sepal.Length   5.0
#>  9          1.4         0.2  setosa Sepal.Length   4.4
#> 10          1.5         0.1  setosa Sepal.Length   4.9
#> # ... with 290 more rows

Typically you’ll use quosures to create wrappers around tidyr functions. To this end you’ll need enquo() which does two things: it transforms your function to a dplyr-like quoting function; and it returns the quoted expression as a quosure. Creating a wrapper function is often a simple matter of enquosing and unquoting:

my_gather <- function(df, expr) {
  quo <- enquo(expr)
  tidyr::gather(df, key, value, !! quo)
}

Thanks to the enquosing, you can safely call your wrapper in local contexts (e.g. within a function) and refer to variables defined there:

local({
  prefix <- "Sepal"
  my_gather(iris, starts_with(prefix))
})
#> # A tibble: 300 x 5
#>    Petal.Length Petal.Width Species          key value
#>           <dbl>       <dbl>  <fctr>        <chr> <dbl>
#>  1          1.4         0.2  setosa Sepal.Length   5.1
#>  2          1.4         0.2  setosa Sepal.Length   4.9
#>  3          1.3         0.2  setosa Sepal.Length   4.7
#>  4          1.5         0.2  setosa Sepal.Length   4.6
#>  5          1.4         0.2  setosa Sepal.Length   5.0
#>  6          1.7         0.4  setosa Sepal.Length   5.4
#>  7          1.4         0.3  setosa Sepal.Length   4.6
#>  8          1.5         0.2  setosa Sepal.Length   5.0
#>  9          1.4         0.2  setosa Sepal.Length   4.4
#> 10          1.5         0.1  setosa Sepal.Length   4.9
#> # ... with 290 more rows
…
