broom 0.5.0 - markusdumke
…
I am delighted to announced that broom 0.5.0 is now available on CRAN. broom 0.5.0 is a major new release featuring changes that affect both users and developers. See the News for a detailed list of changes.

This release was possible due to RStudio’s internship program, which has enabled me (Alex Hayes) to act as broom’s maintainer for the course of the summer. David Robinson continues to steer design decisions. Many thanks to both RStudio and Dave for this opportunity.

Tibble output

All tidiers should now return tibbles rather than data.frames. This allows broom to take advantage of the nice tibble print method and the more consistent behavior of tibbles:

library(broom)

fit <- lm(mpg ~ ., mtcars)
tidy(fit)

## # A tibble: 11 x 5
##   term        estimate std.error statistic p.value
##   <chr>          <dbl>     <dbl>     <dbl>   <dbl>
## 1 (Intercept)  12.3      18.7        0.657   0.518
## 2 cyl          -0.111     1.05      -0.107   0.916
## 3 disp          0.0133    0.0179     0.747   0.463
## 4 hp           -0.0215    0.0218    -0.987   0.335
## 5 drat          0.787     1.64       0.481   0.635
## # ... with 6 more rows
…
